\relax 
\@writefile{toc}{\contentsline {section}{\numberline {1}Overview}{1}}
\@writefile{toc}{\contentsline {section}{\numberline {2}MoTeC Log file Details}{1}}
\@writefile{lot}{\contentsline {table}{\numberline {1}{\ignorespaces Overview of the Detail Fields}}{1}}
\newlabel{tab:DetailOver}{{1}{1}}
